%YAML 1.1
%TAG !u! tag:unity3d.com,2011:
--- !u!114 &11400000
MonoBehaviour:
  m_ObjectHideFlags: 0
  m_PrefabParentObject: {fileID: 0}
  m_PrefabInternal: {fileID: 0}
  m_GameObject: {fileID: 0}
  m_Enabled: 1
  m_EditorHideFlags: 0
  m_Script: {fileID: 11500000, guid: a6b194f808b1af6499c93410e504af42, type: 3}
  m_Name: anim_fail-main_Atlas
  m_EditorClassIdentifier: 
  atlasFile: {fileID: 4900000, guid: 8ea051d4fd7f51e48b7510e436d96606, type: 3}
  materials:
  - {fileID: 2100000, guid: 27addefd927af404cad3a8f9322f43f9, type: 2}
