%YAML 1.1
%TAG !u! tag:unity3d.com,2011:
--- !u!114 &11400000
MonoBehaviour:
  m_ObjectHideFlags: 0
  m_PrefabParentObject: {fileID: 0}
  m_PrefabInternal: {fileID: 0}
  m_GameObject: {fileID: 0}
  m_Enabled: 1
  m_EditorHideFlags: 0
  m_Script: {fileID: 11500000, guid: a6b194f808b1af6499c93410e504af42, type: 3}
  m_Name: anim_smoke_Atlas
  m_EditorClassIdentifier: 
  atlasFile: {fileID: 4900000, guid: 71b9d1abdccd0344cac0e1c65dda2127, type: 3}
  materials:
  - {fileID: 2100000, guid: 7d3501c02927acb45b4f54fdf8d4af8a, type: 2}
